C:\Netbeans\oop\RobotProject1\src\main\java\com\mycompany\robotproject1\MainProgram.java
C:\Netbeans\oop\RobotProject1\src\main\java\com\mycompany\robotproject1\TableMap.java
C:\Netbeans\oop\RobotProject1\src\main\java\com\mycompany\robotproject1\Bomb.java
C:\Netbeans\oop\RobotProject1\src\main\java\com\mycompany\robotproject1\Robot.java
